{
  "data": {
    "products": [
      {
        "id": 1,
        "name": "Samsung Galaxy J2 Prime Resmi SEIN Random",
        "imageUrl": "https://ecs7.tokopedia.net/img/cache/200-square/product-1/2016/12/21/1360193/1360193_9e79dbbc-dffb-4dd1-8377-a1321cad131c.jpg",
        "priceInt": 1210000,
        "discountPercentage": 0,
        "slashedPriceInt": 0,
        "shop": {
          "id": 60,
          "name": "Januar_shop",
          "city": "Jakarta"
        }
      }
    ]
  }
}